
								PV36X202C01B00 Not found in octopart

								PV36Y102C01B00 Not found in octopart

								RC1206JR-0791RL Not found in octopart

								PV36X202C01B00 Not found in octopart

								CRCW08057K87FKEA Not found in octopart

								RC0603FR-07768RL Not found in octopart

								RC0603JR-0768RL Not found in octopart

								3306F-1-103 Not found in octopart

								RC0603FR-076K34L Not found in octopart

								RC0603FR-0763K4L Not found in octopart

								CRCW0805953RFKEA Not found in octopart

								CRCW12066R80JNEA Not found in octopart

								RC0603FR-07820RL Not found in octopart

								64Y-102 Not found in octopart

								PV36X103C01B00 Not found in octopart

								RC0603FR-076K65L Not found in octopart

								ERJ-3EKF7321V Not found in octopart

								PV36X203C01B00 Not found in octopart

								RC0402JR-0768RL Not found in octopart

								3214G-1-103E Not found in octopart

								RS02B5R000FE70 Not found in octopart
